{
    "_id": "2qH61dLeaqgNOdOp",
    "data": {
        "boosts": {
            "0": {
                "value": [
                    "con",
                    "wis"
                ]
            },
            "1": {
                "value": [
                    "cha",
                    "con",
                    "dex",
                    "int",
                    "str",
                    "wis"
                ]
            }
        },
        "description": {
            "value": "<p><strong>Prerequisite</strong>: Region - Golden Road</p>\n<hr />\n<p>You're at home blazing trails in the burning sands, and you made a living guiding or following creatures in the desert. You might be a native nomad, an experienced desert guide, a naturalist, a bandit driven into the dunes by the law-or all of the above.</p>\n<p>Choose two ability boosts. One must be to <strong>Constitution</strong> or <strong>Wisdom</strong>, and one is a free ability boost.</p>\n<p>You're trained in the Survival skill and the Desert Lore skill. You gain the @Compendium[pf2e.feats-srd.Experienced Tracker]{Experienced Tracker} skill feat.</p>"
        },
        "items": {
            "3kqvu": {
                "id": "urQZwmzg2kS53vd5",
                "img": "systems/pf2e/icons/features/feats/feats.webp",
                "level": "1",
                "name": "Experienced Tracker",
                "pack": "pf2e.feats-srd"
            }
        },
        "rules": [],
        "source": {
            "value": "Pathfinder Lost Omens: World Guide"
        },
        "trainedLore": "Desert Lore",
        "trainedSkills": {
            "value": [
                "sur"
            ]
        },
        "traits": {
            "custom": "",
            "rarity": {
                "value": "common"
            },
            "value": []
        }
    },
    "effects": [],
    "flags": {},
    "img": "systems/pf2e/icons/default-icons/background.svg",
    "name": "Desert Tracker",
    "type": "background"
}
