{
    "_id": "n2JN5Kiu7tOCAHPr",
    "data": {
        "boosts": {
            "0": {
                "value": [
                    "cha",
                    "con"
                ]
            },
            "1": {
                "value": [
                    "cha",
                    "con",
                    "dex",
                    "int",
                    "str",
                    "wis"
                ]
            }
        },
        "description": {
            "value": "<p>Keeleno Lathenar, the proprietor of Otari Market, is a grim and bitter man. A werewolf named Jaul Mezmin mauled his wife, Ayla, to death 30 years ago. Keeleno has never forgotten nor forgiven this attack, and he believes against all odds that Jaul has evaded justice and is alive and well. Running errands for Keeleno around town, you've gotten to know him almost as well as you know Otari. Keeleno's suspicions have rubbed off</p>\n<p>on you a bit, so you keep a wary eye on other people—particularly around the full moon.</p>\n<p>Choose two ability boosts. One must be to <strong>Constitution</strong> or <strong>Charisma</strong>, and one is a free ability boost.</p>\n<p>You're trained in the Diplomacy skill and the Otari Lore skill. You gain the @Compendium[pf2e.feats-srd.Hobnobber]{Hobnobber} skill feat.</p>"
        },
        "items": {
            "xtumr": {
                "id": "4RjDxgvNXNl5GG9d",
                "img": "systems/pf2e/icons/features/feats/feats.webp",
                "level": "1",
                "name": "Hobnobber",
                "pack": "pf2e.feats-srd"
            }
        },
        "rules": [],
        "source": {
            "value": "Pathfinder: Abomination Vaults Player's Guide"
        },
        "trainedLore": "Otari Lore",
        "trainedSkills": {
            "value": [
                "dip"
            ]
        },
        "traits": {
            "custom": "",
            "rarity": {
                "value": "common"
            },
            "value": []
        }
    },
    "effects": [],
    "flags": {},
    "img": "systems/pf2e/icons/default-icons/background.svg",
    "name": "Market Runner",
    "type": "background"
}
