{
    "_id": "XvPm866TKSfclErJ",
    "data": {
        "actionCategory": {
            "value": "offensive"
        },
        "actionType": {
            "value": "passive"
        },
        "actions": {
            "value": null
        },
        "description": {
            "value": "<p>A creature damaged by the lich's hand Strike must succeed at a <span data-pf2-check=\"fortitude\" data-pf2-dc=\"\" data-pf2-traits=\"arcane,curse,incapacitation,necromancy\" data-pf2-label=\"Paralyzing Touch DC\" data-pf2-show-dc=\"gm\">Fortitude</span> save against the lich's spell DC-4.</p>\n<p>The creature becomes @Compendium[pf2e.conditionitems.Paralyzed]{Paralyzed} for 1 round on a failure. On a critical failure, the creature is paralyzed permanently, falls @Compendium[pf2e.conditionitems.Prone]{Prone}, and seems dead. A <span data-pf2-check=\"medicine\" data-pf2-dc=\"25\" data-pf2-traits=\"arcane,curse,necromancy\" data-pf2-label=\"Diagnose Paralysis DC\" data-pf2-show-dc=\"gm\">Medicine</span> check reveals the victim is alive.</p>"
        },
        "requirements": {
            "value": ""
        },
        "rules": [],
        "source": {
            "value": "Pathfinder Bestiary"
        },
        "traits": {
            "custom": "",
            "rarity": {
                "value": "common"
            },
            "value": [
                "arcane",
                "curse",
                "incapacitation",
                "necromancy"
            ]
        },
        "trigger": {
            "value": ""
        },
        "weapon": {
            "value": ""
        }
    },
    "effects": [],
    "flags": {},
    "img": "systems/pf2e/icons/actions/Passive.webp",
    "name": "(Lich) Paralyzing Touch",
    "type": "action"
}
