{
    "_id": "0tG5q8JkCaG1EY5s",
    "content": "<table class=\"pf2-table\">\n<thead>\n<tr>\n<th>\n<h3><strong>Name</strong></h3>\n</th>\n<th>\n<h3><strong>Crit Effect</strong></h3>\n</th>\n<th>\n<h3><strong>Type</strong></h3>\n</th>\n</tr>\n</thead>\n<tbody>\n<tr>\n<td>\n<h3>Meant to do That</h3>\n</td>\n<td>\n<h3>You are moved 10 feet in a random direction (determined by the GM). This movement triggers reactions.</h3>\n</td>\n<td>\n<h3>Melee</h3>\n</td>\n</tr>\n<tr>\n<td>\n<h3>Misjudged the Distance</h3>\n</td>\n<td>\n<h3>Until the end of your next turn, all your range increment penalties are doubled.</h3>\n</td>\n<td>\n<h3>Ranged</h3>\n</td>\n</tr>\n<tr>\n<td>\n<h3>Not the Weak Point</h3>\n</td>\n<td>\n<h3>You take 1d6 persistent bleed damage and can't use this attack until the end of your next turn.</h3>\n</td>\n<td>\n<h3>Unarmed</h3>\n</td>\n</tr>\n<tr>\n<td>\n<h3>How did that Happen?</h3>\n</td>\n<td>\n<h3>You call forth a mist with the effects of <em>stinking cloud </em>centered on a corner of your space (determined by the GM).</h3>\n</td>\n<td>\n<h3>Spell</h3>\n</td>\n</tr>\n</tbody>\n</table>\n<h3 style=\"text-align: left;\"> </h3>",
    "flags": {},
    "name": "Critical Fumble Deck #1",
    "permission": {
        "default": 0
    }
}
