{
    "_id": "WOiSJ4IWjaRsSgRO",
    "content": "<h1 class=\"title\">Geryon (The Serpent) [LE]</h1>\n<p class=\"title\"><span id=\"ctl00_MainContent_DetailedOutput\"><span id=\"ctl00_MainContent_DetailedOutput\">Once the mightiest of asura ranas, Geryon betrayed hundreds of Hell's original asura inhabitants to aid Asmodeus in claiming the plane, in the process earning himself the title the Source of Lies. His realm of Stygia, Hell's fifth layer, hews most closely to the nature of Hell before Asmodeus reshaped the plane, and it contains the sunken ruins of countless cities and libraries predating the war against Heaven. The archdevil hoards knowledge and secrets-especially that which has been forbidden- while spreading falsehoods and heresies to mislead the ignorant, and his followers revel in the same.</p>\n<p><strong>Edicts</strong> Hoard knowledge, test the boundaries of taboo, spread falsehoods to dupe the foolhardy</p>\n<p><strong>Anathema</strong> Declare knowledge heresy or forbidden, break your word</p>\n<p><strong>Follower Alignments</strong> LE</span></p>\n<p></span></p>\n<h2 class=\"title\">Devotee Benefits</h2>\n<div>\n<div><strong>Divine Ability</strong> Intelligence or Wisdom</div>\n<div><strong>Divine Font</strong> harm</div>\n<div><strong>Divine Skill</strong> Occultism</div>\n<div><strong>Favored Weapon</strong> war flail</div>\n<div><strong>Domains</strong> might, truth, water, wyrmkin</div>\n<div><strong>Cleric Spells</strong> 1st: acidic burst, 2nd: animal form (snake only), 3rd: hypercognition</div>\n</div>",
    "flags": {},
    "name": "Geryon",
    "permission": {
        "default": 0
    }
}
