{
    "_id": "EFyDjlH7XjGq7Erd",
    "content": "<h1 class=\"title\">Isis (Queen of Miracles) [NG]</h1>\n<p class=\"title\"><span id=\"ctl00_MainContent_DetailedOutput\"><span id=\"ctl00_MainContent_DetailedOutput\"><strong>Isis</strong> is a member of the pantheon often worshiped in Ancient Osirion.</span></span></p>\n<p class=\"title\"><span id=\"ctl00_MainContent_DetailedOutput\"><span id=\"ctl00_MainContent_DetailedOutput\"><strong>Edicts</strong> Provide aid to the sick and wounded, use magic to help others, mourn the cherished dead, ritually purify yourself before entering sacred areas</p>\n<p><strong>Anathema</strong> Reveal sacred rites to the uninitiated, betray your children or your lover, discriminate based on social status</p>\n<p><strong>Follower Alignments</strong> LG, NG, CG</span></p>\n<p></span></p>\n<h2 class=\"title\">Devotee Benefits</h2>\n<div>\n<div><strong>Divine Ability</strong> Wisdom or Charisma</div>\n<div><strong>Divine Font</strong> heal</div>\n<div><strong>Divine Skill</strong> Arcana</div>\n<div><strong>Favored Weapon</strong> staff</div>\n<div><strong>Domains</strong> family, healing, magic, passion</div>\n<div><strong>Cleric Spells</strong> 1st: soothe, 2nd: humanoid form, 3rd: animal vision, 4th: creation, 5th: control water, 6th: wall of force, 7th: magnificent mansion, 8th: wind walk, 9th: shapechange</div>\n</div>",
    "flags": {},
    "name": "Isis",
    "permission": {
        "default": 0
    }
}
