{
    "_id": "w66gCNiZ7dslqG8K",
    "content": "<h1 class=\"title\">Lissala (The Sihedron Scion) [LE]</h1>\n<p class=\"title\"><span id=\"ctl00_MainContent_DetailedOutput\"><span id=\"ctl00_MainContent_DetailedOutput\"><strong>Edicts</strong> Work hard and demand others do so as well, cooperate or avoid conflict with ophidian creatures</p>\n<p><strong>Anathema</strong> Disobey a superior, shirk your duties, destroy a book</p>\n<p><strong>Follower Alignments</strong> LN, LE</span></p>\n<p></span></p>\n<h2 class=\"title\">Devotee Benefits</h2>\n<div>\n<div><strong>Divine Ability</strong> Intelligence or Wisdom</div>\n<div><strong>Divine Font</strong> harm</div>\n<div><strong>Divine Skill</strong> Arcana</div>\n<div><strong>Favored Weapon</strong> whip</div>\n<div><strong>Domains</strong> fate, glyph, magic, toil</div>\n<div><strong>Cleric Spells</strong> 1st: message rune, 2nd: secret page, 6th: dominate</div>\n</div>",
    "flags": {},
    "name": "Lissala",
    "permission": {
        "default": 0
    }
}
