{
    "_id": "KWVdoAm3b01M8Lcp",
    "content": "<h1 class=\"title\">Mephistopheles (The Crimson Son) [LE]</h1>\n<p class=\"title\"><span id=\"ctl00_MainContent_DetailedOutput\"><span id=\"ctl00_MainContent_DetailedOutput\">The archdevil Mephistopheles was shaped of the ashes and fire of Hell itself to convey the plane's will. The lord of Caina, Hell's eighth layer, he is a conniving schemer and a brilliant politician, quick to offer insults both blatant and cloaked behind silvered words. A master of rule, law, and words, he is the creator of the renowned agreements known as infernal contracts, crafted to damn mortal souls through their own ambitions. He views mortals as nothing more than a source of power for the infernal realm, but he nevertheless has followers who share his affinity for the power of law and loophole.</p>\n<p><strong>Edicts</strong> Master laws and use them to your benefit, enable the desperate, excoriate others with veiled mockery</p>\n<p><strong>Anathema</strong> Break a contract you made, get caught breaking the law</p>\n<p><strong>Follower Alignments</strong> LE</span></p>\n<p></span></p>\n<h2 class=\"title\">Devotee Benefits</h2>\n<div>\n<div><strong>Divine Ability</strong> Intelligence or Charisma</div>\n<div><strong>Divine Font</strong> harm</div>\n<div><strong>Divine Skill</strong> Deception</div>\n<div><strong>Favored Weapon</strong> trident</div>\n<div><strong>Domains</strong> glyph, knowledge, secrecy, tyranny</div>\n<div><strong>Cleric Spells</strong> 1st: message rune, 2nd: abyssal plague (blistering invective (Advanced Player's Guide, coming soon)), 5th: subconscious suggestion</div>\n</div>",
    "flags": {},
    "name": "Mephistopheles",
    "permission": {
        "default": 0
    }
}
