{
    "_id": "Bhxji0kxIbMKqdkw",
    "content": "<h1 class=\"title\">Rovagug (The Rough Beast) [CE]<span id=\"ctl00_MainContent_DetailedOutput\"></span></h1>\n<p class=\"title\"><span id=\"ctl00_MainContent_DetailedOutput\"><img class=\"thumbnail\" style=\"float: right;\" src=\"https://2e.aonprd.com/Images/Deities/Rovagug.png\" width=\"119\" height=\"119\" /><span id=\"ctl00_MainContent_DetailedOutput\">Rovagug has no single holy scripture. He has little use for one, for his sole commandment is to destroy, and his followers need no instruction in how to accomplish that. The figurative and literal monsters who worship Rovagug share their myths and legends in secret shrines and hidden caves, calling him the Rough Beast, the Imprisoned King, the Tide of Fangs, the Unmaker, and the Worldbreaker. They tell each other that each life they snuff out, each piece of art they destroy, each work of labor they bring tumbling down puts a crack in the prison that holds their god. Each of their little efforts of destruction adds up and will one day free him, setting him loose to bring about the end of all things.</p>\n<p><strong>Edicts</strong> destroy all things, free Rovagug from his prison</p>\n<p><strong>Anathema</strong> create something new, let material ties restrain you, torture a victim or otherwise delay its destruction</p>\n<p><strong>Areas of Concern</strong> destruction, disaster, and wrath</p>\n<p><strong>Follower Alignments</strong> NE, CE</span></p>\n<p></span></p>\n<h2 class=\"title\">Devotee Benefits</h2>\n<div>\n<div><strong>Divine Ability</strong> Strength or Constitution</div>\n<div><strong>Divine Font</strong> harm</div>\n<div><strong>Divine Skill</strong> Athletics</div>\n<div><strong>Favored Weapon</strong> greataxe</div>\n<div><strong>Domains</strong> air, destruction, earth, zeal</div>\n<div><strong>Alternate Domains</strong> swarm, void</div>\n<div><strong>Cleric Spells</strong> 1st: burning hands, 2nd: enlarge, 6th: disintegrate</div>\n</div>\n<h2>Divine Intercession</h2>\n<p><span id=\"ctl00_MainContent_DetailedOutput\">Rovagug's imprisonment means he can almost never intercede on Golarion, but some places lead far enough into the earth that the god's profane influence can leak through. He is as likely to curse those who draw his attention as he is to reward them, though great enough acts of violence and destruction may earn his favor.</p>\n<p><strong>Minor Boon</strong>: Your attack becomes more destructive. Once, one of your failed or successful attacks becomes a critical hit, and your weapon or unarmed attack gains the deadly d12 trait for this attack, replacing any deadly trait it already had. Rovagug typically grants this boon when the critical hit could destroy something precious or significant.</p>\n<p><strong>Moderate Boon</strong>: You can devour all. You mouth grows into a horrible circular, insectile maw of needle-like teeth. You gain a bite unarmed attack that deals 1d8 piercing damage. Additionally, you can stomach eating anything you can fit down your throat-even rocks or small objects. You gain a +4 status bonus to saves resulting from eating something, such as diseases, poisons, or other effects of the ingested object. This doesn't allow you to digest magic items that would otherwise be difficult or impossible to destroy, such as cursed items or artifacts.</p>\n<p><strong>Major Boon</strong>: You can crack the surface of Golarion, accelerating the release of the Rough Beast. You gain the Quaking Stomp barbarian feat.</p>\n<p><strong>Minor Curse</strong>: Whenever you are imprisoned, you thrash and shake as your mind fills with desperation. Any time you are restrained or otherwise imprisoned (such as being sent to jail), you are also clumsy 2 and stupefied 2.</p>\n<p><strong>Moderate Curse</strong>: Your destructive rage seeks to remain unbound. Any armor you wear automatically becomes broken. Other items in your possession occasionally become broken over time.</p>\n<p><strong>Major Curse</strong>: You are useful only as a beacon of destruction. You are permanently confused, rampaging against anything and everything in your sight, and you deal an additional 18 damage with your unarmed and weapon Strikes.</span></p>",
    "flags": {},
    "name": "Rovagug",
    "permission": {
        "default": 0
    }
}
