{
    "_id": "TvxsVRztDlGcWpcI",
    "content": "<h1 class=\"title\">Sobek (The Raging Torrent) [CN]</h1>\n<p class=\"title\"><span id=\"ctl00_MainContent_DetailedOutput\"><span id=\"ctl00_MainContent_DetailedOutput\"><strong>Edicts</strong> Take what you want, indulge in base desires, feast on luxurious food, kill demons and evil creatures</p>\n<p><strong>Anathema</strong> Cower from fights, despoil the land, kill the innocent</p>\n<p><strong>Follower Alignments</strong> CG, N, CN, CE</span></p>\n<p></span></p>\n<h2 class=\"title\">Devotee Benefits</h2>\n<div>\n<div><strong>Divine Ability</strong> Strength or Constitution</div>\n<div><strong>Divine Font</strong> harm or heal</div>\n<div><strong>Divine Skill</strong> Athletics</div>\n<div><strong>Favored Weapon</strong> falchion</div>\n<div><strong>Domains</strong> might, protection, water, wyrmkin</div>\n<div><strong>Cleric Spells</strong> 1st: hydraulic push, 3rd: feet to fins, 4th: dinosaur form (appears as crocodile)</div>\n</div>",
    "flags": {},
    "name": "Sobek",
    "permission": {
        "default": 0
    }
}
