{
    "_id": "SCGdJmm7Wzle9jFP",
    "content": "<h1 class=\"title\">Zohls (Verity) [LG]</h1>\n<p><span id=\"ctl00_MainContent_DetailedOutput\">Zohls, also known as Verity, advocates for determination, investigation, and truth. She believes that mysteries lead to truth, but how one arrives at that truth is as important as the answer itself. All questions are puzzles, and all puzzles are worth solving. The more intricate the problem, the more rewarding the investigation, and through determination and ethical investigation, even the deepest of enigmas can be solved. Calculated, logical thinking is more important to Zohls than gut instinct. She sees patterns everywhere, and she teaches that detecting these patterns brings the truth to light. While all investigations are worth pursuing so long as they don't hurt innocents, investigations that reveal the truth of crimes or other horrors, and that lead to justice being served and victims finding peace, are the most important of all to Verity.</p>\n<p>When appearing to her followers, Verity is always practically dressed, usually wearing a tunic and breeches. She wears black and white clothing, as these colors represent the light of truth and the darkness of obscurity and the unknown. She keeps her light-brown hair pulled back in braids. On her back she has large wings made of parchment that never wrinkle, whether furled or unfurled. Followers of Zohls include detectives, scientists, researchers, historians, archivists, librarians, and even conspiracy theorists.</p>\n<p><strong>Edicts</strong> Solve logic puzzles, investigate crimes, devise new solutions from research</p>\n<p><strong>Anathema</strong> Make judgments without evidence, contaminate evidence, obstruct truths</p>\n<p><strong>Areas of Concern</strong> determination, investigation, and truth</p>\n<p><strong>Follower Alignments</strong> LG, NG, LN</span></p>\n<h2 class=\"title\">Devotee Benefits</h2>\n<div>\n<div>\n<div><strong>Divine Ability</strong> Intelligence or Wisdom</div>\n<div><strong>Divine Font</strong> heal</div>\n<div><strong>Divine Skill</strong> Society</div>\n<div><strong>Favored Weapon</strong> heavy crossbow</div>\n<div><strong>Domains</strong> ambition, cities, knowledge, truth</div>\n<div><strong>Cleric Spells</strong> 1st: share lore, 3rd: hypercognition, 7th: retrocognition</div>\n</div></div>",
    "flags": {},
    "name": "Zohls",
    "permission": {
        "default": 0
    }
}
