{
    "_id": "9zfcIXDG2mDpiypp",
    "data": {
        "actionCategory": {
            "value": ""
        },
        "actionType": {
            "value": "passive"
        },
        "actions": {
            "value": null
        },
        "description": {
            "value": "<p>You've spent time training in your armor alongside other agents from the Swords. Your proficiency rank for light, medium, and heavy armor increases to expert for whichever of those you already had the trained proficiency rank in.</p>"
        },
        "featType": {
            "value": "archetype"
        },
        "level": {
            "value": 14
        },
        "prerequisites": {
            "value": [
                {
                    "value": "Swordmaster Dedication"
                },
                {
                    "value": "trained in light, medium, or heavy armor"
                }
            ]
        },
        "rules": [],
        "source": {
            "value": "Pathfinder Lost Omens: Pathfinder Society Guide"
        },
        "traits": {
            "custom": "",
            "rarity": {
                "value": "common"
            },
            "value": [
                "archetype"
            ]
        }
    },
    "effects": [],
    "flags": {},
    "img": "systems/pf2e/icons/features/feats/feats.webp",
    "name": "Armored Exercise",
    "type": "feat"
}
