{
    "_id": "ZwvSiuFFsyNGJiB3",
    "data": {
        "actionCategory": {
            "value": "interaction"
        },
        "actionType": {
            "value": "passive"
        },
        "actions": {
            "value": null
        },
        "description": {
            "value": "<p>You have learned how to master the power contained within sunlight, just like the trees that form your body. Your @Compendium[pf2e.ancestryfeatures.Sunlight Healing]{Sunlight Healing} recovers 1d8 Hit Points per level.</p>\n<p>[[/r (@details.level.value)d8]]{Sunlight Healing}</p>"
        },
        "featType": {
            "value": "ancestry"
        },
        "level": {
            "value": 5
        },
        "location": "",
        "prerequisites": {
            "value": []
        },
        "rules": [],
        "source": {
            "value": "Pathfinder Lost Omens: The Mwangi Expanse"
        },
        "traits": {
            "custom": "",
            "rarity": {
                "value": "common"
            },
            "value": [
                "conrasu"
            ]
        }
    },
    "effects": [],
    "flags": {},
    "img": "systems/pf2e/icons/default-icons/feats.webp",
    "name": "Ceremony of Sunlight",
    "type": "feat"
}
