{
    "_id": "VZDJgGm5LGb1Pdck",
    "data": {
        "actionCategory": {
            "value": ""
        },
        "actionType": {
            "value": "passive"
        },
        "actions": {
            "value": null
        },
        "description": {
            "value": "<p>You can summon a harmless but impressive elemental display. You become trained in Intimidation. If you would automatically become trained in Intimidation (from your background or class, for example), you instead become trained in a skill of your choice. When you Demoralize a foe, if you choose to Demoralize via an elemental display, Demoralize loses the auditory trait and gains the visual trait, and you don't take a penalty when you attempt to Demoralize a creature that doesn't understand your language.</p>"
        },
        "featType": {
            "value": "ancestry"
        },
        "level": {
            "value": 1
        },
        "location": "",
        "prerequisites": {
            "value": []
        },
        "rules": [],
        "source": {
            "value": "Pathfinder Lost Omens: Ancestry Guide"
        },
        "traits": {
            "custom": "",
            "rarity": {
                "value": "common"
            },
            "value": [
                "suli"
            ]
        }
    },
    "effects": [],
    "flags": {},
    "img": "systems/pf2e/icons/features/feats/feats.webp",
    "name": "Elemental Embellish",
    "type": "feat"
}
