{
    "_id": "UKHIKipBvOGhzcSQ",
    "data": {
        "actionCategory": {
            "value": ""
        },
        "actionType": {
            "value": "passive"
        },
        "actions": {
            "value": null
        },
        "description": {
            "value": "<p><strong>Frequency</strong> twice per week</p>\n<hr />\n<p>The connection between you and the First World resonates within your body stronger than it does for most gnomes, allowing you to cross the threshold between the Material Plane and the First World.</p>\n<p>You gain @Compendium[pf2e.spells-srd.Plane Shift]{Plane Shift} as a primal innate spell. You can cast it twice per week. This can be used only to travel back and forth between the First World and the Material Plane. Due to your body's natural resonance, you can act as the spell focus, and you don't require a tuning fork.</p>"
        },
        "featType": {
            "value": "ancestry"
        },
        "level": {
            "value": 17
        },
        "prerequisites": {
            "value": []
        },
        "rules": [],
        "source": {
            "value": "Pathfinder Advanced Player's Guide"
        },
        "traits": {
            "custom": "",
            "rarity": {
                "value": "common"
            },
            "value": [
                "gnome"
            ]
        }
    },
    "effects": [],
    "flags": {},
    "img": "systems/pf2e/icons/features/feats/feats.webp",
    "name": "Homeward Bound",
    "type": "feat"
}
