{
    "_id": "lFVqejlf52cdYrZy",
    "data": {
        "actionCategory": {
            "value": ""
        },
        "actionType": {
            "value": "passive"
        },
        "actions": {
            "value": null
        },
        "description": {
            "value": "<p>Bullets and bombs can be scarce in some parts, so you've learned to make your own. You become trained in Crafting and gain the alchemist's infused reagents class feature, gaining a number of reagents each day equal to your level. You also gain the @Compendium[pf2e.feats-srd.Alchemical Crafting]{Alchemical Crafting} feat and four additional formulas for 1st-level alchemical items.</p>\n<p>You gain infused reagents (a pool of reagents usable to make alchemical items) and advanced alchemy (allowing you to make alchemical items during your daily preparations without the normal cost or time expenditure). You gain batches of infused reagents per day equal to your level, which you can use to create only bombs or alchemical ammunition. Your advanced alchemy level for creating these is 1 and doesn't increase on its own. If you use a batch of infused reagents to create basic level-0 ammunition such as black powder cartridges or black powder doses, you produce 10 rounds of ammunition.</p>"
        },
        "featType": {
            "value": "class"
        },
        "level": {
            "value": 1
        },
        "location": "",
        "prerequisites": {
            "value": []
        },
        "rules": [],
        "source": {
            "value": ""
        },
        "traits": {
            "custom": "",
            "rarity": {
                "value": "common"
            },
            "value": [
                "gunslinger"
            ]
        }
    },
    "effects": [],
    "flags": {},
    "img": "systems/pf2e/icons/default-icons/feats.webp",
    "name": "Munitions Crafter",
    "type": "feat"
}
