{
    "_id": "kJfLBPtiVi5LQu0v",
    "data": {
        "actionCategory": {
            "value": ""
        },
        "actionType": {
            "value": "passive"
        },
        "actions": {
            "value": null
        },
        "description": {
            "value": "<p>The supernatural charm of your vampiric progenitor hangs about you, and you've learned to use it on mortals. Against humanoids (or other creatures of your type, if you're not a humanoid), you gain a +1 circumstance bonus to Deception checks to Lie, and to Diplomacy checks to Gather Information and Make an Impression.</p>"
        },
        "featType": {
            "value": "ancestry"
        },
        "level": {
            "value": 1
        },
        "location": "",
        "prerequisites": {
            "value": []
        },
        "rules": [],
        "source": {
            "value": "Pathfinder Lost Omens: Ancestry Guide"
        },
        "traits": {
            "custom": "",
            "rarity": {
                "value": "common"
            },
            "value": [
                "dhampir"
            ]
        }
    },
    "effects": [],
    "flags": {},
    "img": "systems/pf2e/icons/features/feats/feats.webp",
    "name": "Nocturnal Charm",
    "type": "feat"
}
