{
    "_id": "I9rSWQyueWHQyNxe",
    "data": {
        "actionCategory": {
            "value": ""
        },
        "actionType": {
            "value": "passive"
        },
        "actions": {
            "value": null
        },
        "description": {
            "value": "<p>You can take the form of a plant creature.</p>\n<p>Add the forms listed in @Compendium[pf2e.spells-srd.Plant Form]{Plant Form} to your wild shape list; if you don't have <em>wild shape</em>, you can instead cast <em>plant form</em> once per day, heightened to the same level as your highest-level druid spell slot.</p>\n<p>Whenever you're polymorphed into another form using <em>wild shape</em>, you gain resistance 5 to poison.</p>"
        },
        "featType": {
            "value": "class"
        },
        "level": {
            "value": 10
        },
        "location": "",
        "prerequisites": {
            "value": [
                {
                    "value": "leaf order or Wild Shape"
                }
            ]
        },
        "rules": [
            {
                "key": "Resistance",
                "predicate": {
                    "all": [
                        "spell-effect-wild-shape"
                    ],
                    "any": [
                        "battle-form",
                        "spell-effect-humanoid-form"
                    ],
                    "not": [
                        "spell-effect-plant-form"
                    ]
                },
                "type": "poison",
                "value": 5
            }
        ],
        "source": {
            "value": "Pathfinder Core Rulebook"
        },
        "traits": {
            "custom": "",
            "rarity": {
                "value": "common"
            },
            "value": [
                "druid"
            ]
        }
    },
    "effects": [],
    "flags": {},
    "img": "systems/pf2e/icons/features/feats/feats.webp",
    "name": "Plant Shape",
    "type": "feat"
}
