{
    "_id": "m5JYglEObpWC3dhP",
    "data": {
        "actionCategory": {
            "value": ""
        },
        "actionType": {
            "value": "passive"
        },
        "actions": {
            "value": null
        },
        "description": {
            "value": "<p>Like many humans raised in a close-knit community, you have always been strongly attuned to the presence of others. Willing allies that you are aware of within 60 feet that would otherwise be @Compendium[pf2e.conditionitems.Undetected]{Undetected} by you are instead @Compendium[pf2e.conditionitems.Hidden]{Hidden} from you. The flat check for you to target willing allies within 60 feet that are hidden from you is 5 instead of 11.</p>"
        },
        "featType": {
            "value": "ancestry"
        },
        "level": {
            "value": 5
        },
        "prerequisites": {
            "value": []
        },
        "rules": [],
        "source": {
            "value": "Pathfinder Advanced Player's Guide"
        },
        "traits": {
            "custom": "",
            "rarity": {
                "value": "common"
            },
            "value": [
                "human"
            ]
        }
    },
    "effects": [],
    "flags": {},
    "img": "systems/pf2e/icons/features/feats/feats.webp",
    "name": "Sense Allies",
    "type": "feat"
}
