{
    "_id": "nJRcbt72wRk5Rmc4",
    "data": {
        "actionCategory": {
            "value": ""
        },
        "actionType": {
            "value": "passive"
        },
        "actions": {
            "value": null
        },
        "description": {
            "value": "<p>You call forth the blood of your foes to grant you vigor. Once per day, you can cast @Compendium[pf2e.spells-srd.Vampiric Exsanguination]{Vampiric Exsanguination} as a 7th-level divine innate spell.</p>"
        },
        "featType": {
            "value": "ancestry"
        },
        "level": {
            "value": 17
        },
        "prerequisites": {
            "value": []
        },
        "rules": [],
        "source": {
            "value": "Pathfinder Advanced Player's Guide"
        },
        "traits": {
            "custom": "",
            "rarity": {
                "value": "common"
            },
            "value": [
                "dhampir"
            ]
        }
    },
    "effects": [],
    "flags": {},
    "img": "systems/pf2e/icons/features/feats/feats.webp",
    "name": "Symphony Of Blood",
    "type": "feat"
}
