{
    "_id": "pIHjH1x0AVtiX5Tv",
    "data": {
        "actionCategory": {
            "value": ""
        },
        "actionType": {
            "value": "passive"
        },
        "actions": {
            "value": null
        },
        "description": {
            "value": "<p>When you enter a new location, such as a room or corridor, you immediately notice one thing out of the ordinary. The GM determines what it is, or whether there's nothing reasonable to pick up, skipping obvious clues that can be easily noticed without a check or specifically looking for them. You learn only that an area or object is suspicious, but not why it's suspicious.</p>\n<p>For example, if you entered a study with a large bloodstain on the ground, the bloodstain is so obviously suspicious it's evident to you already, so the GM might note that there's something suspicious about the desk drawer instead. You would then need to investigate the drawer further to find out what specifically is out of the ordinary. That's Odd doesn't reveal whether creatures are suspicious.</p>\n<p>You don't typically get any benefit when you leave and come back to a place, though if a major change has happened there and time has passed, the GM might determine that you do.</p>"
        },
        "featType": {
            "value": "class"
        },
        "level": {
            "value": 1
        },
        "prerequisites": {
            "value": []
        },
        "rules": [],
        "source": {
            "value": "Pathfinder Advanced Player's Guide"
        },
        "traits": {
            "custom": "",
            "rarity": {
                "value": "common"
            },
            "value": [
                "investigator"
            ]
        }
    },
    "effects": [],
    "flags": {},
    "img": "systems/pf2e/icons/features/feats/feats.webp",
    "name": "That's Odd",
    "type": "feat"
}
