{
    "_id": "j9Rp4fOZIxizyvYy",
    "data": {
        "actionCategory": {
            "value": ""
        },
        "actionType": {
            "value": "passive"
        },
        "actions": {
            "value": null
        },
        "description": {
            "value": "<p>From childhood, you have been exposed to traditional viking weapons, and you soon learned to handle them in battle. Now, you can raid proudly alongside your fellows.</p>\n<p>You are trained with the @Compendium[pf2e.equipment-srd.Battle Axe]{Battle Axe}, @Compendium[pf2e.equipment-srd.Hatchet]{Hatchet}, @Compendium[pf2e.equipment-srd.Longsword]{Longsword}, and @Compendium[pf2e.equipment-srd.Shortsword]{Shortsword}. In addition, you gain the @Compendium[pf2e.feats-srd.Shield Block]{Shield Block} reaction.</p>"
        },
        "featType": {
            "value": "archetype"
        },
        "level": {
            "value": 4
        },
        "location": "",
        "prerequisites": {
            "value": [
                {
                    "value": "Viking Dedication"
                }
            ]
        },
        "rules": [
            {
                "key": "ActiveEffectLike",
                "mode": "upgrade",
                "path": "data.martial.weapon-base-battle-axe.rank",
                "value": 1
            },
            {
                "key": "ActiveEffectLike",
                "mode": "upgrade",
                "path": "data.martial.weapon-base-hatchet.rank",
                "value": 1
            },
            {
                "key": "ActiveEffectLike",
                "mode": "upgrade",
                "path": "data.martial.weapon-base-longsword.rank",
                "value": 1
            },
            {
                "key": "ActiveEffectLike",
                "mode": "upgrade",
                "path": "data.martial.weapon-base-shortsword.rank",
                "value": 1
            }
        ],
        "source": {
            "value": "Pathfinder Advanced Player's Guide"
        },
        "traits": {
            "custom": "",
            "rarity": {
                "value": "common"
            },
            "value": [
                "archetype"
            ]
        }
    },
    "effects": [],
    "flags": {},
    "img": "systems/pf2e/icons/features/feats/feats.webp",
    "name": "Viking Weapon Familiarity",
    "type": "feat"
}
