{
    "_id": "vKFg7HMNu4cCDD8b",
    "data": {
        "actionCategory": {
            "value": ""
        },
        "actionType": {
            "value": "passive"
        },
        "actions": {
            "value": null
        },
        "description": {
            "value": "<p>When you cast grease, you can modify its target to be 1 creature. If you do, replace the spell's standard effects with the following: You splash the target with combustible grease. The target must attempt a Reflex save.</p>\n<hr />\n<p><strong>Critical Success</strong> The target is unaffected.</p>\n<p><strong>Success</strong> The target is splattered with grease and gains weakness 2 to fire until the end of your next turn. The target or an adjacent creature can rub off the combustible grease with an Interact action, ending the effect.</p>\n<p><strong>Failure</strong> As success, except the weakness to fire lasts for 1 minute.</p>\n<hr />\n<p><strong>Heightened (+2)</strong> The weakness increases by 1.</p>"
        },
        "featType": {
            "value": "archetype"
        },
        "level": {
            "value": 6
        },
        "location": "",
        "prerequisites": {
            "value": [
                {
                    "value": "Spell Trickster Dedication"
                },
                {
                    "value": "ability to cast grease"
                }
            ]
        },
        "rules": [],
        "source": {
            "value": ""
        },
        "traits": {
            "custom": "",
            "rarity": {
                "value": "common"
            },
            "value": [
                "archetype"
            ]
        }
    },
    "effects": [],
    "flags": {},
    "img": "systems/pf2e/icons/default-icons/feats.webp",
    "name": "Volatile Grease",
    "type": "feat"
}
