{
    "_id": "9t4x8vRmQikEl4vP",
    "data": {
        "actionCategory": {
            "value": ""
        },
        "actionType": {
            "value": "passive"
        },
        "actions": {
            "value": null
        },
        "description": {
            "value": "<p>You have seen people from so many walks of life in your travels that you naturally adopt a pleasant and affable demeanor when meeting others. You are trained in Diplomacy. If you would automatically become trained in Diplomacy (from your background or class, for example), you instead become trained in a skill of your choice.</p>\n<p>In addition, you gain the @Compendium[pf2e.feats-srd.Hobnobber]{Hobnobber} skill feat.</p>\n<hr />\n<p><em>Note: If you are already trained in the skill provided by this feat, you need to manually select an alternative skill.</em></p>"
        },
        "featType": {
            "value": "ancestry"
        },
        "level": {
            "value": 1
        },
        "location": "",
        "prerequisites": {
            "value": []
        },
        "rules": [
            {
                "key": "ActiveEffectLike",
                "mode": "upgrade",
                "path": "data.skills.dip.rank",
                "value": 1
            }
        ],
        "source": {
            "value": "Pathfinder Advanced Player's Guide"
        },
        "traits": {
            "custom": "",
            "rarity": {
                "value": "common"
            },
            "value": [
                "catfolk"
            ]
        }
    },
    "effects": [],
    "flags": {},
    "img": "systems/pf2e/icons/features/feats/feats.webp",
    "name": "Well-Met Traveler",
    "type": "feat"
}
