{
    "_id": "54BhwBHyp2jp3e26",
    "data": {
        "actionCategory": {
            "value": ""
        },
        "actionType": {
            "value": "passive"
        },
        "actions": {
            "value": null
        },
        "description": {
            "value": "<p>You have a connection to the creatures of the natural world that allows you to communicate with them on a rudimentary level. You can use Diplomacy to @Compendium[pf2e.actionspf2e.Make an Impression]{Make an Impression} on animals and to make very simple @Compendium[pf2e.actionspf2e.Request]{Requests} of them. In most cases, wild animals will give you time to make your case.</p>"
        },
        "featType": {
            "value": "class"
        },
        "level": {
            "value": 2
        },
        "location": "",
        "prerequisites": {
            "value": []
        },
        "rules": [],
        "source": {
            "value": "Pathfinder Core Rulebook"
        },
        "traits": {
            "custom": "",
            "rarity": {
                "value": "common"
            },
            "value": [
                "ranger"
            ]
        }
    },
    "effects": [],
    "flags": {},
    "img": "systems/pf2e/icons/features/feats/feats.webp",
    "name": "Wild Empathy",
    "type": "feat"
}
