{
    "_id": "wKx7BWdQu5sEjL9j",
    "data": {
        "actionCategory": {
            "value": ""
        },
        "actionType": {
            "value": "action"
        },
        "actions": {
            "value": 2
        },
        "description": {
            "value": "<p><strong>Requirements</strong> You are in @Compendium[pf2e.spells-srd.Wild Winds Stance]{Wild Winds Stance}</p>\n<hr />\n<p>You store up energy and release it in an enormous gust of rushing wind. Make a wind crash Strike against each creature in your choice of a 30-foot cone or a 60 foot line. These attacks all count toward your multiple attack penalty, but the penalty doesn't increase until after you make all the attacks.</p>"
        },
        "featType": {
            "value": "class"
        },
        "level": {
            "value": 14
        },
        "location": "",
        "prerequisites": {
            "value": [
                {
                    "value": "Wild Winds Initiate"
                }
            ]
        },
        "rules": [],
        "source": {
            "value": "Pathfinder Core Rulebook"
        },
        "traits": {
            "custom": "",
            "rarity": {
                "value": "common"
            },
            "value": [
                "air",
                "concentrate",
                "evocation",
                "manipulate",
                "monk"
            ]
        }
    },
    "effects": [],
    "flags": {},
    "img": "systems/pf2e/icons/features/feats/feats.webp",
    "name": "Wild Winds Gust",
    "type": "feat"
}
