{
    "_id": "BDMEqBsumguTrMXa",
    "data": {
        "description": {
            "value": "<p>You bind yourself to the power of Hell, transforming into a Medium devil battle form. When you cast this spell, choose barbazu, erinys, osyluth, or sarglagon. If you choose osyluth or sarglagon, the battle form is Large and you must have enough space to expand into or the spell is lost. While in this form you gain the devil and fiend traits. You have hands in this battle form and can use manipulate actions. You can Dismiss the spell.</p>\n<p>You gain the following statistics and abilities regardless of the form that you choose:</p>\n<ul>\n<li>AC = 22 + your level. Ignore your armor check's penalty and Speed reduction.</li>\n<li>5 temporary Hit Points, resistance 5 to physical damage (except silver), and weakness 5 to good.</li>\n<li>Resistance 10 to fire.</li>\n<li>Darkvision.</li>\n<li>One or more attacks specific to the battle form you use. You're trained with them. Your attack modifier is +20, and you use the listed damage. These attacks are Strength based (for the purpose of the enfeebled condition, for example). If your attack modifier is higher for the given unarmed attack or weapon, you can use it instead.</li>\n<li>Athletics modifier of +23, unless your own modifier is higher.</li>\n</ul>\n<p>You also gain specific abilities based on the type of devil you choose:</p>\n<ul>\n<li><strong>Erinys</strong> Speed 25 feet, fly 40 feet;\n<ul>\n<li><strong>Melee</strong> <span class=\"pf2-icon\">1</span> longsword (versatile P), <strong>Damage</strong> 1d8+10 slashing plus 1d6 evil and 1d6 fire;</li>\n<li><strong>Ranged</strong> <span class=\"pf2-icon\">1</span> composite longbow (deadly d10, range increment 100 feet, volley), <strong>Damage</strong> 1d8 piercing plus 1d6 evil and 1d6 fire.</li>\n</ul>\n</li>\n</ul>"
        },
        "duration": {
            "expiry": "turn-start",
            "sustained": false,
            "unit": "minutes",
            "value": 1
        },
        "level": {
            "value": 1
        },
        "rules": [
            {
                "hasHands": true,
                "key": "BattleForm",
                "overrides": {
                    "armorClass": {
                        "modifier": "22 + @details.level.value"
                    },
                    "senses": {
                        "darkvision": {}
                    },
                    "size": "med",
                    "skills": {
                        "ath": {
                            "modifier": 23
                        }
                    },
                    "speeds": {
                        "fly": 40,
                        "land": 25
                    },
                    "strikes": {
                        "composite-longbow": {
                            "ability": "str",
                            "baseType": "composite-longbow",
                            "category": "martial",
                            "damage": {
                                "damageType": "piercing",
                                "dice": 1,
                                "die": "d8"
                            },
                            "group": "bow",
                            "img": "systems/pf2e/icons/equipment/weapons/composite-longbow.webp",
                            "label": "PF2E.Weapon.Base.composite-longbow",
                            "modifier": 20,
                            "traits": [
                                "deadly-d10",
                                "range-increment-100",
                                "volley-30"
                            ]
                        },
                        "longsword": {
                            "ability": "str",
                            "baseType": "longsword",
                            "category": "martial",
                            "damage": {
                                "damageType": "slashing",
                                "dice": 1,
                                "die": "d8",
                                "modifier": 10
                            },
                            "group": "sword",
                            "img": "systems/pf2e/icons/equipment/weapons/longsword.webp",
                            "label": "PF2E.Weapon.Base.longsword",
                            "modifier": 20,
                            "traits": [
                                "versatile-p"
                            ]
                        }
                    },
                    "tempHP": 5,
                    "traits": [
                        "devil",
                        "fiend"
                    ]
                }
            },
            {
                "damageType": "evil",
                "diceNumber": 1,
                "dieSize": "d6",
                "key": "DamageDice",
                "predicate": {
                    "all": [
                        "battle-form"
                    ]
                },
                "selector": "damage"
            },
            {
                "damageType": "fire",
                "diceNumber": 1,
                "dieSize": "d6",
                "key": "DamageDice",
                "predicate": {
                    "all": [
                        "battle-form"
                    ]
                },
                "selector": "damage"
            },
            {
                "key": "ActiveEffectLike",
                "mode": "override",
                "path": "flags.pf2e.disableABP",
                "priority": 10,
                "value": true
            },
            {
                "except": "Silver",
                "key": "Resistance",
                "type": "physical",
                "value": 5
            },
            {
                "key": "Weakness",
                "type": "good",
                "value": 5
            },
            {
                "key": "Resistance",
                "type": "fire",
                "value": 10
            }
        ],
        "source": {
            "value": "Pathfinder Secrets of Magic"
        },
        "start": {
            "initiative": null,
            "value": 0
        },
        "target": null,
        "tokenIcon": {
            "show": true
        },
        "traits": {
            "custom": "",
            "rarity": {
                "value": "common"
            },
            "value": []
        }
    },
    "effects": [],
    "flags": {},
    "img": "systems/pf2e/icons/spells/devil-form.webp",
    "name": "Spell Effect: Devil Form (Erinys)",
    "type": "effect"
}
