{
    "_id": "Uu8VnpAo3XZZEKPd",
    "data": {
        "actionCategory": {
            "value": ""
        },
        "actionType": {
            "value": "passive"
        },
        "actions": {
            "value": null
        },
        "description": {
            "value": "<p>Your inventions are incredibly effective. Your proficiency rank for your inventor class DC increases to master.</p>"
        },
        "featType": {
            "value": "classfeature"
        },
        "level": {
            "value": 17
        },
        "location": "",
        "prerequisites": {
            "value": []
        },
        "rules": [],
        "source": {
            "value": ""
        },
        "traits": {
            "custom": "",
            "rarity": {
                "value": "common"
            },
            "value": [
                "inventor"
            ]
        }
    },
    "effects": [],
    "flags": {},
    "img": "systems/pf2e/icons/features/classes/inventive-mastery.webp",
    "name": "Inventive Mastery",
    "type": "feat"
}
