{
    "_id": "QWXvksGJhOjXbBqi",
    "data": {
        "actionCategory": {
            "value": ""
        },
        "actionType": {
            "value": "passive"
        },
        "actions": {
            "value": null
        },
        "description": {
            "value": "<p>You practice a style of shooting that relies on unerring accuracy and perfect placement of your first shot. You keep hidden or at a distance, staying out of the fray and bringing unseen death to your foes.</p>\n<p><strong>Slinger's Reload</strong> Covered Reload</p>\n<p><strong>Deeds</strong> <em>Initial</em> One Shot, One Kill; <em>Advanced</em> Vital Shot; <em>Greater</em> Ghost Shot</p>\n<p><strong>Way Skill</strong> Stealth</p>"
        },
        "featType": {
            "value": "classfeature"
        },
        "level": {
            "value": 1
        },
        "location": "",
        "prerequisites": {
            "value": []
        },
        "rules": [],
        "source": {
            "value": ""
        },
        "traits": {
            "custom": "",
            "rarity": {
                "value": "common"
            },
            "value": [
                "gunslinger"
            ]
        }
    },
    "effects": [],
    "flags": {},
    "img": "systems/pf2e/icons/features/classes/way-of-the-sniper.webp",
    "name": "Way of the Sniper",
    "type": "feat"
}
