{
    "_id": "1kr9leAaxUEsE69J",
    "data": {
        "abilities": {
            "cha": {
                "mod": -5,
                "value": 0
            },
            "con": {
                "mod": 6,
                "value": 22
            },
            "dex": {
                "mod": 2,
                "value": 14
            },
            "int": {
                "mod": -5,
                "value": 0
            },
            "str": {
                "mod": 7,
                "value": 24
            },
            "wis": {
                "mod": 0,
                "value": 10
            }
        },
        "attributes": {
            "ac": {
                "details": "",
                "value": 29
            },
            "allSaves": {
                "value": ""
            },
            "hp": {
                "details": "16 squares (160 = 12 squares, 80 = 8 squares)",
                "max": 240,
                "temp": 0,
                "value": 240
            },
            "initiative": {
                "ability": "perception"
            },
            "perception": {
                "value": 22
            },
            "shield": {
                "ac": 2,
                "brokenThreshold": 0,
                "hardness": 0,
                "max": 0,
                "value": 0
            },
            "speed": {
                "otherSpeeds": [],
                "special": "",
                "value": "20"
            }
        },
        "details": {
            "alignment": {
                "value": "N"
            },
            "blurb": "",
            "creatureType": "",
            "level": {
                "value": 13
            },
            "privateNotes": "",
            "publicNotes": "",
            "source": {
                "author": "",
                "value": ""
            }
        },
        "resources": {},
        "saves": {
            "fortitude": {
                "saveDetail": "",
                "value": 26
            },
            "reflex": {
                "saveDetail": "",
                "value": 22
            },
            "will": {
                "saveDetail": "",
                "value": 22
            }
        },
        "traits": {
            "ci": [],
            "di": {
                "custom": "",
                "value": [
                    "bleed",
                    "death-effects",
                    "disease",
                    "doomed",
                    "drained",
                    "fatigued",
                    "fire",
                    "healing",
                    "magical",
                    "mental",
                    "necromancy",
                    "nonlethal",
                    "nonlethal-attacks",
                    "paralyzed",
                    "poison",
                    "sickened",
                    "unconscious"
                ]
            },
            "dr": [
                {
                    "exceptions": "except adamantine and bludgeoning",
                    "type": "physical",
                    "value": 15
                }
            ],
            "dv": [
                {
                    "type": "area-damage",
                    "value": 15
                },
                {
                    "type": "bludgeoning",
                    "value": 10
                },
                {
                    "type": "splash-damage",
                    "value": 8
                }
            ],
            "languages": {
                "custom": "",
                "selected": [],
                "value": []
            },
            "rarity": {
                "value": "rare"
            },
            "senses": {
                "value": "darkvision"
            },
            "size": {
                "value": "grg"
            },
            "traits": {
                "custom": "",
                "value": [
                    "construct",
                    "mindless",
                    "troop"
                ]
            }
        }
    },
    "effects": [],
    "flags": {},
    "img": "systems/pf2e/icons/default-icons/npc.svg",
    "items": [
        {
            "_id": "zocCD6sdYf9KZebu",
            "data": {
                "actionCategory": {
                    "value": "interaction"
                },
                "actionType": {
                    "value": "passive"
                },
                "actions": {
                    "value": null
                },
                "description": {
                    "value": "<p>@Localize[PF2E.NPC.Abilities.Glossary.Darkvision]</p>"
                },
                "requirements": {
                    "value": ""
                },
                "rules": [],
                "slug": "darkvision",
                "source": {
                    "value": ""
                },
                "traits": {
                    "custom": "",
                    "rarity": {
                        "value": "common"
                    },
                    "value": []
                },
                "trigger": {
                    "value": ""
                },
                "weapon": {
                    "value": ""
                }
            },
            "effects": [],
            "flags": {
                "core": {
                    "sourceId": "Compendium.pf2e.bestiary-ability-glossary-srd.qCCLZhnp2HhP3Ex6"
                }
            },
            "img": "systems/pf2e/icons/actions/Passive.webp",
            "name": "Darkvision",
            "sort": 100000,
            "type": "action"
        },
        {
            "_id": "g6hlerQpvBwAEP2V",
            "data": {
                "actionCategory": {
                    "value": "interaction"
                },
                "actionType": {
                    "value": "action"
                },
                "actions": {
                    "value": 1
                },
                "description": {
                    "value": "<p>@Localize[PF2E.NPC.Abilities.Glossary.FormUp]</p>"
                },
                "requirements": {
                    "value": ""
                },
                "rules": [],
                "slug": "form-up",
                "source": {
                    "value": ""
                },
                "traits": {
                    "custom": "",
                    "rarity": {
                        "value": "common"
                    },
                    "value": []
                },
                "trigger": {
                    "value": ""
                },
                "weapon": {
                    "value": ""
                }
            },
            "effects": [],
            "flags": {
                "core": {
                    "sourceId": "Compendium.pf2e.bestiary-ability-glossary-srd.OvqohW9YuahnFaiX"
                }
            },
            "img": "systems/pf2e/icons/actions/OneAction.webp",
            "name": "Form Up",
            "sort": 200000,
            "type": "action"
        },
        {
            "_id": "lhdg7f7vw5jg69eo",
            "data": {
                "actionCategory": {
                    "value": "defensive"
                },
                "actionType": {
                    "value": "passive"
                },
                "actions": {
                    "value": null
                },
                "description": {
                    "value": "<p>As the garrison's numbers dwindle, gold defenders melt away into worthless slag. Every time that the garrison is reduced to a threshold, it leaves behind a <span data-pf2-effect-area=\"burst\" data-pf2-distance=\"10\">10-foot radius</span> cloud of fumes and a 10-foot radius puddle of molten metal. Creatures that breathe fumes are exposed to gold defender poison. Creatures that move through the puddle take [[/r {10d6}[fire]]]{10d6 fire damage}. The fumes dissipate after 1 round and the puddle completely evaporates after 1 minute.</p>"
                },
                "requirements": {
                    "value": ""
                },
                "rules": [],
                "slug": null,
                "source": {
                    "value": ""
                },
                "traits": {
                    "custom": "",
                    "rarity": {
                        "value": "common"
                    },
                    "value": []
                },
                "trigger": {
                    "value": ""
                }
            },
            "effects": [],
            "flags": {},
            "img": "systems/pf2e/icons/actions/Passive.webp",
            "name": "Death Throes",
            "sort": 300000,
            "type": "action"
        },
        {
            "_id": "3rDt1NcX4MLRokS5",
            "data": {
                "actionCategory": {
                    "value": "defensive"
                },
                "actionType": {
                    "value": "passive"
                },
                "actions": {
                    "value": null
                },
                "description": {
                    "value": "<p>harmed by <em>cold</em>([[/r {2d8}]]{2d8 damage} from areas or persistent damage); healed by <em>fire</em> (area [[/r {2d8}[healing]]]{2d8 Hit Points}); slowed by <em>acid</em></p>\n<hr />\n<p>A golem is immune to spells and magical abilities other than its own, but each type of golem is affected by a few types of magic in special ways. These exceptions are listed in shortened form in the golem's stat block, with the full rules appearing here. If an entry lists multiple types (such as “cold and water”), either type of spell can affect the golem.</p>\n<ul>\n<li><strong>Harmed By</strong> Any magic of this type that targets the golem causes it to take the listed amount of damage (this damage has no type) instead of the usual effect. If the golem starts its turn in an area of magic of this type or is affected by a persistent effect of the appropriate type, it takes the damage listed in the parenthetical.</li>\n<li><strong>Healed By</strong> Any magic of this type that targets the golem makes the golem lose the slowed condition and gain HP equal to half the damage the spell would have dealt. If the golem starts its turn in an area of this type of magic, it gains the HP listed in the parenthetical.</li>\n<li><strong>Slowed By</strong> Any magic of this type that targets the golem causes it to be @Compendium[pf2e.conditionitems.Slowed]{Slowed 1} for [[/r 2d6 #rounds]]{2d6 rounds} instead of the usual effect. If the golem starts its turn in an area of this type of magic, it's slowed 1 for that round.</li>\n<li><strong>Vulnerable To</strong> Each golem is vulnerable to one or more specific spells, with the effects described in its stat block.</li>\n</ul>"
                },
                "requirements": {
                    "value": ""
                },
                "rules": [],
                "slug": "golem-golem-antimagic",
                "source": {
                    "value": "Pathfinder Bestiary"
                },
                "traits": {
                    "custom": "",
                    "rarity": {
                        "value": "common"
                    },
                    "value": []
                },
                "trigger": {
                    "value": ""
                },
                "weapon": {
                    "value": ""
                }
            },
            "effects": [],
            "flags": {
                "core": {
                    "sourceId": "Compendium.pf2e.bestiary-family-ability-glossary.r34QDwKiWZoVymJa"
                }
            },
            "img": "systems/pf2e/icons/actions/Passive.webp",
            "name": "(Golem) Golem Antimagic",
            "sort": 400000,
            "type": "action"
        },
        {
            "_id": "abacNXTNDrym5YzN",
            "data": {
                "actionCategory": {
                    "value": "defensive"
                },
                "actionType": {
                    "value": "passive"
                },
                "actions": {
                    "value": null
                },
                "description": {
                    "value": "<p>@Localize[PF2E.NPC.Abilities.Glossary.TroopDefenses]</p>"
                },
                "requirements": {
                    "value": ""
                },
                "rules": [],
                "slug": "troop-defenses",
                "source": {
                    "value": ""
                },
                "traits": {
                    "custom": "",
                    "rarity": {
                        "value": "common"
                    },
                    "value": []
                },
                "trigger": {
                    "value": ""
                },
                "weapon": {
                    "value": ""
                }
            },
            "effects": [],
            "flags": {
                "core": {
                    "sourceId": "Compendium.pf2e.bestiary-ability-glossary-srd.RJbI07QSiYp0SF9A"
                }
            },
            "img": "systems/pf2e/icons/actions/Passive.webp",
            "name": "Troop Defenses",
            "sort": 500000,
            "type": "action"
        },
        {
            "_id": "a5k3x5hdv38xi2zz",
            "data": {
                "actionCategory": {
                    "value": "offensive"
                },
                "actionType": {
                    "value": "action"
                },
                "actions": {
                    "value": 1
                },
                "description": {
                    "value": "<p><span class=\"pf2-icon\">1</span> to <span class=\"pf2-icon\">3</span> actions</p>\n<div data-visibility=\"gm\"><strong>Frequency</strong> once per round</div>\n<hr />\n<p><strong>Effect</strong> The garrison makes a melee attack against each enemy within 5 feet (<span data-pf2-check=\"reflex\" data-pf2-traits=\"damaging-effect\" data-pf2-label=\"Golden Strike DC\" data-pf2-dc=\"30\" data-pf2-show-dc=\"gm\">basic Reflex</span> save). The damage depends on the number of actions.</p>\n<p><span class=\"pf2-icon\">1</span> [[/r {2d8+2}[bludgeoning]]]{2d8+2 bludgeoning damage}</p>\n<p><span class=\"pf2-icon\">2</span> [[/r {3d8+12}[bludgeoning]]]{3d8+12 bludgeoning damage}</p>\n<p><span class=\"pf2-icon\">3</span> [[/r {4d8+15}[bludgeoning]]]{4d8+15 bludgeoning damage}</p>"
                },
                "requirements": {
                    "value": ""
                },
                "rules": [],
                "slug": null,
                "source": {
                    "value": ""
                },
                "traits": {
                    "custom": "",
                    "rarity": {
                        "value": "common"
                    },
                    "value": []
                },
                "trigger": {
                    "value": ""
                }
            },
            "effects": [],
            "flags": {},
            "img": "systems/pf2e/icons/actions/OneAction.webp",
            "name": "Golden Strike",
            "sort": 600000,
            "type": "action"
        },
        {
            "_id": "b2u5y0qk8zdkouor",
            "data": {
                "actionCategory": {
                    "value": "offensive"
                },
                "actionType": {
                    "value": "passive"
                },
                "actions": {
                    "value": null
                },
                "description": {
                    "value": "<p>Whenever the garrison Strides, it first Forms Up as a free action to condense into a 20-foot-by-20-foot area (minus any missing squares), then moves up to its Speed. This works just like a Gargantuan creature moving; for instance, if any square enters difficult terrain, the extra movement cost applies to the whole troop.</p>"
                },
                "requirements": {
                    "value": ""
                },
                "rules": [],
                "slug": null,
                "source": {
                    "value": ""
                },
                "traits": {
                    "custom": "",
                    "rarity": {
                        "value": "common"
                    },
                    "value": []
                },
                "trigger": {
                    "value": ""
                }
            },
            "effects": [],
            "flags": {},
            "img": "systems/pf2e/icons/actions/Passive.webp",
            "name": "Troop Movement",
            "sort": 700000,
            "type": "action"
        },
        {
            "_id": "EjOis3VJMvqzovdO",
            "data": {
                "actionCategory": {
                    "value": "offensive"
                },
                "actionType": {
                    "value": "passive"
                },
                "actions": {
                    "value": null
                },
                "description": {
                    "value": "<p data-visibility=\"gm\">Any @Compendium[pf2e.conditionitems.Drained]{Drained} value from this poison is reduced by 1 every hour;</p>\n<p><strong>Saving Throw</strong> <span data-pf2-check=\"fortitude\" data-pf2-traits=\"poison\" data-pf2-label=\"Gold Defender Poison DC\" data-pf2-dc=\"33\" data-pf2-show-dc=\"gm\">Fortitude</span>;</p>\n<div data-visibility=\"gm\">\n<p><strong>Maximum Duration</strong> 4 rounds;</p>\n<p><strong>Stage 1</strong> [[/r {2d6}[poison]]]{2d6 poison} and @Compendium[pf2e.conditionitems.Drained]{Drained 1} (1 round);</p>\n<p><strong>Stage 2</strong> [[/r {4d6}[poison]]]{4d6 poison} and @Compendium[pf2e.conditionitems.Drained]{Drained 2} (1 round);</p>\n<p><strong>Stage 3</strong> [[/r {8d6}[poison]]]{8d6 poison} and @Compendium[pf2e.conditionitems.Drained]{Drained 3} (1 round).</p>\n</div>"
                },
                "requirements": {
                    "value": ""
                },
                "rules": [],
                "slug": null,
                "source": {
                    "value": ""
                },
                "traits": {
                    "custom": "",
                    "rarity": {
                        "value": "common"
                    },
                    "value": [
                        "poison"
                    ]
                },
                "trigger": {
                    "value": ""
                }
            },
            "effects": [],
            "flags": {
                "core": {
                    "sourceId": "Item.6H6B7oy5DCoMRLwl"
                }
            },
            "img": "systems/pf2e/icons/actions/Passive.webp",
            "name": "Gold Defender Poison",
            "sort": 800000,
            "type": "action"
        },
        {
            "_id": "SGZ6TPjfU9Nu2TFL",
            "data": {
                "actionCategory": {
                    "value": "offensive"
                },
                "actionType": {
                    "value": "action"
                },
                "actions": {
                    "value": 2
                },
                "description": {
                    "value": "<p><strong>Requirements</strong> The gold defender garrison is not in darkness;</p>\n<p><strong>Effect</strong> The gold defender garrison reshapes its skin into a reflective surface that magnifies ambient light into a precise beam that burns all creatures in a <span data-pf2-effect-area=\"cone\" data-pf2-distance=\"30\">30-foot cone</span>, dealing [[/r {14d6}[fire]]]{14d6 fire damage} (<span data-pf2-check=\"reflex\" data-pf2-traits=\"primal,evocation,fire,damaging-effect\" data-pf2-label=\"Light Reflection in Dim Light DC\" data-pf2-dc=\"31\" data-pf2-show-dc=\"gm\">Reflex</span> save if the gold defender is in dim light, <span data-pf2-check=\"reflex\" data-pf2-traits=\"primal,evocation,fire,damaging-effect\" data-pf2-label=\"Light Reflection in Bright Light DC\" data-pf2-dc=\"33\" data-pf2-show-dc=\"gm\">Reflex</span> save if it's in bright light). The size of the cone reduces to a <span data-pf2-effect-area=\"cone\" data-pf2-distance=\"15\">15-foot cone</span> when the garrison is reduced to 8 or fewer squares.<span data-visibility=\"gm\"> It can't use Light Reflection again for [[/br {1d4} #rounds]]{1d4 rounds}.</span></p>\n<hr />\n<p><strong>Critical Success</strong> The creature takes no damage.</p>\n<p><strong>Success</strong> The creature takes half damage.</p>\n<p><strong>Failure</strong> The creature takes full damage and catches fire, taking [[/r {1d6}[persistent,fire] #Persistent Fire Damage]]{1d6} @Compendium[pf2e.conditionitems.Persistent Damage]{Persistent Fire Damage}.</p>\n<p><strong>Critical Failure</strong> As failure, but the persistent fire damage is [[/r {5d6}[persistent,fire] #Persistent Fire Damage]]{5d6}.</p>"
                },
                "requirements": {
                    "value": ""
                },
                "rules": [],
                "slug": null,
                "source": {
                    "value": ""
                },
                "traits": {
                    "custom": "",
                    "rarity": {
                        "value": "common"
                    },
                    "value": [
                        "evocation",
                        "primal"
                    ]
                },
                "trigger": {
                    "value": ""
                }
            },
            "effects": [],
            "flags": {
                "core": {
                    "sourceId": "Item.yCeYAoltBjTFyYoI"
                }
            },
            "img": "systems/pf2e/icons/actions/TwoActions.webp",
            "name": "Light Reflection",
            "sort": 900000,
            "type": "action"
        },
        {
            "_id": "isw0jjv8m7cn7ysi",
            "data": {
                "description": {
                    "value": ""
                },
                "mod": {
                    "value": 30
                },
                "proficient": {
                    "value": 0
                },
                "rules": [],
                "slug": null,
                "source": {
                    "value": ""
                },
                "traits": {
                    "custom": "",
                    "rarity": {
                        "value": "common"
                    },
                    "value": []
                }
            },
            "effects": [],
            "flags": {},
            "img": "systems/pf2e/icons/default-icons/lore.svg",
            "name": "Athletics",
            "sort": 1000000,
            "type": "lore"
        }
    ],
    "name": "Gold Defender Garrison",
    "token": {
        "disposition": -1,
        "height": 1,
        "img": "systems/pf2e/icons/default-icons/npc.svg",
        "name": "Gold Defender Garrisons",
        "width": 1
    },
    "type": "npc"
}
