{
    "_id": "VUwpDY4Z91s9QCg0",
    "data": {
        "ability": {
            "value": ""
        },
        "area": {
            "areaType": "",
            "value": ""
        },
        "areasize": {
            "value": ""
        },
        "autoHeightenLevel": {
            "value": null
        },
        "category": {
            "value": "focus"
        },
        "components": {
            "focus": false,
            "material": false,
            "somatic": true,
            "verbal": false
        },
        "cost": {
            "value": ""
        },
        "damage": {
            "value": {}
        },
        "description": {
            "value": "<p><strong>Trigger</strong> You would take electricity damage.</p>\n<hr />\n<p>When lightning is turned at you, you store the charge safely within yourself, unleashing it when the time is right. You gain electricity resistance 10 against the triggering effect. If you successfully prevent damage in this way, at any time during the spell's duration, you can spend a single action, which has the attack trait, to expend the charge and make a melee spell attack at an adjacent target or a ranged spell attack at a target within 60 feet. This attack deals electricity damage equal to the damage prevented by <em>bottle the storm</em>. If you cast <em>bottle the storm</em> a second time before the original duration elapses, or if you do not make this attack, the stored charge dissipates harmlessly.</p>\n<p>@Compendium[pf2e.spell-effects.Spell Effect: Bottle the Storm]{Spell Effect: Bottle the Storm}</p>\n<hr />\n<p><strong>Heightened (7th)</strong> The resistance increases to 15, and you can immediately make the spell attack roll granted by <em>bottle the storm</em> as part of the reaction used to cast the spell.</p>\n<p><strong>Heightened (10th)</strong> The resistance increases to 20, and you can immediately make the spell attack roll granted by <em>bottle the storm</em> as part of the reaction used to cast the spell.</p>"
        },
        "duration": {
            "value": "1 minute"
        },
        "hasCounteractCheck": {
            "value": false
        },
        "level": {
            "value": 4
        },
        "location": {
            "value": ""
        },
        "materials": {
            "value": ""
        },
        "prepared": {
            "value": ""
        },
        "primarycheck": {
            "value": ""
        },
        "range": {
            "value": ""
        },
        "rules": [
            {
                "key": "ActiveEffectLike",
                "mode": "override",
                "path": "flags.pf2e.rollOptions.all.electricity-domain",
                "priority": 10,
                "value": true
            }
        ],
        "save": {
            "basic": "",
            "value": ""
        },
        "school": {
            "value": "evocation"
        },
        "secondarycasters": {
            "value": ""
        },
        "secondarycheck": {
            "value": ""
        },
        "source": {
            "value": "Pathfinder Lost Omens: Gods & Magic"
        },
        "spellType": {
            "value": "utility"
        },
        "sustained": {
            "value": false
        },
        "target": {
            "value": ""
        },
        "time": {
            "value": "reaction"
        },
        "traditions": {
            "custom": "",
            "value": []
        },
        "traits": {
            "custom": "",
            "rarity": {
                "value": "uncommon"
            },
            "value": [
                "cleric",
                "electricity"
            ]
        }
    },
    "effects": [],
    "flags": {},
    "img": "systems/pf2e/icons/spells/bottle-the-storm.webp",
    "name": "Bottle the Storm",
    "type": "spell"
}
