{
    "_id": "32NpJbPblay77K6v",
    "data": {
        "ability": {
            "value": ""
        },
        "area": {
            "areaType": "",
            "value": ""
        },
        "autoHeightenLevel": {
            "value": null
        },
        "category": {
            "value": "ritual"
        },
        "components": {
            "material": false,
            "somatic": false,
            "verbal": false
        },
        "cost": {
            "value": "tattoo inks and silver tattooing needles worth 20 gp for each secondary caster"
        },
        "damage": {
            "value": {}
        },
        "description": {
            "value": "<p>You carefully tattoo the same design upon each secondary caster. The tattoo can be of any shape or symbol, but it must include a mouth. The tattoo fades naturally over the course of 1 month.</p>\n<hr />\n<p><strong>Critical Success</strong> The tattoos on the secondary casters are all magically linked for 1 week, providing a semi-telepathic bond. Each secondary caster can communicate secretly with any other secondary casters at any time by mouthing words but making no sound. The person receiving a message must be within 120 feet of the sender, must be within the sender's line of sight, and must have their tattoo uncovered. The mouth of the tattoo moves to match the words, which the tattoo whispers, but only the tattoo's bearer can hear it.</p>\n<p><strong>Success</strong> As critical success, but the effect lasts for 1 day.</p>\n<p><strong>Failure</strong> The ritual has no effect.</p>\n<p><strong>Critical Failure</strong> The ritual has no effect and creates a backlash of persistent mental static. All casters are @Compendium[pf2e.conditionitems.Stupefied]{Stupefied 1} for 1 day.</p>"
        },
        "duration": {
            "value": ""
        },
        "hasCounteractCheck": {
            "value": false
        },
        "level": {
            "value": 3
        },
        "location": {
            "value": ""
        },
        "materials": {
            "value": ""
        },
        "prepared": {
            "value": ""
        },
        "primarycheck": {
            "value": "Crafting (expert)"
        },
        "range": {
            "value": "touch"
        },
        "rules": [],
        "save": {
            "basic": "",
            "value": ""
        },
        "school": {
            "value": "divination"
        },
        "secondarycasters": {
            "value": "2, up to a maximum of 6"
        },
        "secondarycheck": {
            "value": "Arcana, Occultism"
        },
        "source": {
            "value": "Pathfinder #169: Kindled Magic"
        },
        "spellType": {
            "value": "attack"
        },
        "sustained": {
            "value": false
        },
        "target": {
            "value": "the secondary casters"
        },
        "time": {
            "value": "1 hour"
        },
        "traditions": {
            "value": []
        },
        "traits": {
            "custom": "",
            "rarity": {
                "value": "rare"
            },
            "value": [
                "auditory",
                "linguistic",
                "mental"
            ]
        }
    },
    "effects": [],
    "flags": {},
    "img": "systems/pf2e/icons/default-icons/spell.svg",
    "name": "Tattoo Whispers",
    "type": "spell"
}
