{
    "_id": "oq6khbojns3YRi2g",
    "data": {
        "attributes": {
            "ac": {
                "check": 0,
                "details": "",
                "value": 26
            },
            "collisionDC": {
                "value": 27
            },
            "collisionDamage": {
                "value": "7d10"
            },
            "hardness": 15,
            "hp": {
                "brokenThreshold": 5,
                "details": "",
                "max": 170,
                "temp": 0,
                "value": 170
            }
        },
        "details": {
            "AC": 0,
            "crew": "1 pilot, 2 crew",
            "description": "",
            "level": {
                "value": 10
            },
            "passengers": "3",
            "pilotingCheck": "Arcana (DC 29), Engineering Lore (DC 27), Piloting Lore (DC 27), or Nature (DC 29)",
            "price": 3000,
            "space": {
                "high": 20,
                "long": 30,
                "wide": 15
            },
            "speed": "climb 40 feet (magical)"
        },
        "saves": {
            "fortitude": {
                "item": 0,
                "rank": 0,
                "saveDetail": "",
                "value": 19
            }
        },
        "source": {
            "value": ""
        },
        "traits": {
            "ci": [],
            "di": {
                "custom": "",
                "value": [
                    "object-immunities"
                ]
            },
            "dr": [],
            "dv": [],
            "rarity": {
                "value": "uncommon"
            },
            "size": {
                "value": "huge"
            },
            "traits": {
                "custom": "",
                "value": []
            }
        }
    },
    "effects": [],
    "flags": {},
    "img": "systems/pf2e/icons/default-icons/vehicle.svg",
    "items": [
        {
            "_id": "jUfFzSzu0PIwCSgB",
            "data": {
                "actionCategory": {
                    "value": ""
                },
                "actionType": {
                    "value": "passive"
                },
                "actions": {
                    "value": null
                },
                "description": {
                    "value": "<p>Rocks and stones aren't difficult terrain to a cliff crawler, and it can traverse most vertical rock and stone surfaces at up to half its Speed.</p>"
                },
                "requirements": {
                    "value": ""
                },
                "rules": [],
                "slug": null,
                "source": {
                    "value": ""
                },
                "traits": {
                    "custom": "",
                    "rarity": {
                        "value": "common"
                    },
                    "value": []
                },
                "trigger": {
                    "value": ""
                }
            },
            "effects": [],
            "flags": {},
            "img": "systems/pf2e/icons/actions/Passive.webp",
            "name": "Mountain Traverser",
            "sort": 0,
            "type": "action"
        }
    ],
    "name": "Cliff Crawler",
    "token": {
        "disposition": 0,
        "height": 6,
        "img": "systems/pf2e/icons/default-icons/vehicle.svg",
        "name": "Cliff Crawler",
        "width": 3
    },
    "type": "vehicle"
}
